{
    "allowSave": false,
    "components": [
      {
        "label": "Columns",
        "columns": [
          {
            "components": [
              {
                "label": "ConsultedStudents.Student",
                "spellcheck": true,
                "tableView": true,
                "validate": {
                  "unique": false,
                  "multiple": false
                },
                "key": "studentName",
                "type": "textfield",
                "input": true,
                "hideOnChildrenHidden": false,
                "description": "Search by name, surname or student identifier"
              }
            ],
            "width": 4,
            "offset": 0,
            "push": 0,
            "pull": 0
          },
          {
            "components": [
              {
                "label": "ConsultedStudents.Status",
                "widget": "choicesjs",
                "dataSrc": "url",
                "data": {
                  "url": "StudentStatuses?$orderby=name",
                  "headers": []
                },
                "selectThreshold": 0.3,
                "validate": {
                  "unique": false,
                  "multiple": false
                },
                "template": "{{ item.name }}",
                "key": "studentStatus",
                "valueProperty": "alternateName",
                "selectValues": "value",
                "type": "select",
                "input": true,
                "hideOnChildrenHidden": false,
                "disableLimit": false,
                "lazyLoad": false
              }
            ],
            "width": 3,
            "offset": 0,
            "push": 0,
            "pull": 0
          },
          {
            "components": [
              {
                "label": "ConsultedStudents.Department",
                "labelPosition": "top",
                "widget": "choicesjs",
                "key": "studentDepartment",
                "dataSrc": "url",
                "data": {
                  "url": "Instructors/me/consultedStudents?$select=student/department/id as id, student/department/name as name&$groupby=student/department/id, student/department/name",
                  "headers": []
                },
                "template": "{{ item.name }}",
                "selectValues": "value",
                "valueProperty": "id",
                "type": "select",
                "input": true,
                "disabled": false,
                "lazyLoad": false,
                "searchEnabled": true
              }
            ],
            "width": 5,
            "offset": 0,
            "push": 0,
            "pull": 0
          }
        ],
        "tableView": false,
        "key": "department",
        "type": "columns",
        "input": false,
        "path": "columns"
      },
      {
        "label": "Columns",
        "columns": [
          {
            "components": [
              {
                "label": "ConsultedStudents.IsActive",
                "widget": "choicesjs",
                "data": {
                  "values": [
                    {
                      "label": "Yes",
                      "value": "1"
                    },
                    {
                      "label": "No",
                      "value": "0"
                    }
                  ]
                },
                "dataType": "string",
                "validate": {
                  "unique": false,
                  "multiple": false
                },
                "key": "active",
                "valueProperty": "value",
                "selectValues": "label",
                "type": "select",
                "input": true,
                "hideOnChildrenHidden": false,
                "disableLimit": false,
                "lazyLoad": false,
                "searchEnabled": false
              }
            ],
            "width": 4,
            "offset": 0,
            "push": 0,
            "pull": 0
          },
          {
            "components": [
              {
                "label": "ConsultedStudents.FromYear",
                "widget": "choicesjs",
                "dataSrc": "url",
                "data": {
                  "url": "AcademicYears?$orderby=id desc",
                  "headers": []
                },
                "selectThreshold": 0.3,
                "validate": {
                },
                "template": "<span class='d-block pr-5 text-truncate'>{{ item.name }}</span>",
                "key": "fromYear",
                "valueProperty": "id",
                "selectValues": "value",
                "type": "select",
                "input": true,
                "hideOnChildrenHidden": false,
                "disableLimit": false,
                "lazyLoad": false
              }
            ],
            "width": 4,
            "offset": 0,
            "push": 0,
            "pull": 0
          },
          {
            "components": [
              {
                "label": "ConsultedStudents.ToYear",
                "widget": "choicesjs",
                "dataSrc": "url",
                "data": {
                  "url": "AcademicYears?$orderby=id desc",
                  "headers": []
                },
                "selectThreshold": 0.3,
                "validate": {
                },
                "template": "<span class='d-block pr-5 text-truncate'>{{ item.name }}</span>",
                "key": "toYear",
                "valueProperty": "id",
                "selectValues": "value",
                "type": "select",
                "input": true,
                "hideOnChildrenHidden": false,
                "disableLimit": false,
                "lazyLoad": false
              }
            ],
            "width": 4,
            "offset": 0,
            "push": 0,
            "pull": 0
          }
        ],
        "tableView": false,
        "key": "columns1",
        "type": "columns",
        "input": false,
        "path": "columns1"
      }
    ]
  }
  